第７回目
…
library(spData)
library(spDataLarge)

データの追加

worldのデータにcoffee_dataをくっつける．両方のデータに置いてname_longが共通の列なのでその列を参照してworldにcoffee_dataを追加している．name_longのデータが完全に一致しない国においてはcoffee_dataがNAとして追加されている． left_joinは第一引数のデータに第二引数のデータを追加するという関数． left_joinの代わりにinner_joinを使用すると，NAになる部分が弾かれる． plotの際には結果は同じだが，実際にデータを見ると，world_coffee1とworle_coffee2では国の数が大きく異なる．

world

## Simple feature collection with 177 features and 10 fields
## Geometry type: MULTIPOLYGON
## Dimension:     XY
## Bounding box:  xmin: -180 ymin: -90 xmax: 180 ymax: 83.64513
## Geodetic CRS:  WGS 84
## # A tibble: 177 x 11
##    iso_a2 name_long continent region_un subregion type  area_km2     pop lifeExp
##    <chr>  <chr>     <chr>     <chr>     <chr>     <chr>    <dbl>   <dbl>   <dbl>
##  1 FJ     Fiji      Oceania   Oceania   Melanesia Sove…   1.93e4  8.86e5    70.0
##  2 TZ     Tanzania  Africa    Africa    Eastern … Sove…   9.33e5  5.22e7    64.2
##  3 EH     Western … Africa    Africa    Northern… Inde…   9.63e4 NA         NA  
##  4 CA     Canada    North Am… Americas  Northern… Sove…   1.00e7  3.55e7    82.0
##  5 US     United S… North Am… Americas  Northern… Coun…   9.51e6  3.19e8    78.8
##  6 KZ     Kazakhst… Asia      Asia      Central … Sove…   2.73e6  1.73e7    71.6
##  7 UZ     Uzbekist… Asia      Asia      Central … Sove…   4.61e5  3.08e7    71.0
##  8 PG     Papua Ne… Oceania   Oceania   Melanesia Sove…   4.65e5  7.76e6    65.2
##  9 ID     Indonesia Asia      Asia      South-Ea… Sove…   1.82e6  2.55e8    68.9
## 10 AR     Argentina South Am… Americas  South Am… Sove…   2.78e6  4.30e7    76.3
## # … with 167 more rows, and 2 more variables: gdpPercap <dbl>,
## #   geom <MULTIPOLYGON [°]>

coffee_data

## # A tibble: 47 x 3
##    name_long                coffee_production_2016 coffee_production_2017
##    <chr>                                     <int>                  <int>
##  1 Angola                                       NA                     NA
##  2 Bolivia                                       3                      4
##  3 Brazil                                     3277                   2786
##  4 Burundi                                      37                     38
##  5 Cameroon                                      8                      6
##  6 Central African Republic                     NA                     NA
##  7 Congo, Dem. Rep. of                           4                     12
##  8 Colombia                                   1330                   1169
##  9 Costa Rica                                   28                     32
## 10 Côte d'Ivoire                               114                    130
## # … with 37 more rows

world_coffee1 = left_join(world, coffee_data, by = "name_long")
world_coffee2 = inner_join(world, coffee_data, by = "name_long")
world_coffee1

## Simple feature collection with 177 features and 12 fields
## Geometry type: MULTIPOLYGON
## Dimension:     XY
## Bounding box:  xmin: -180 ymin: -90 xmax: 180 ymax: 83.64513
## Geodetic CRS:  WGS 84
## # A tibble: 177 x 13
##    iso_a2 name_long continent region_un subregion type  area_km2     pop lifeExp
##    <chr>  <chr>     <chr>     <chr>     <chr>     <chr>    <dbl>   <dbl>   <dbl>
##  1 FJ     Fiji      Oceania   Oceania   Melanesia Sove…   1.93e4  8.86e5    70.0
##  2 TZ     Tanzania  Africa    Africa    Eastern … Sove…   9.33e5  5.22e7    64.2
##  3 EH     Western … Africa    Africa    Northern… Inde…   9.63e4 NA         NA  
##  4 CA     Canada    North Am… Americas  Northern… Sove…   1.00e7  3.55e7    82.0
##  5 US     United S… North Am… Americas  Northern… Coun…   9.51e6  3.19e8    78.8
##  6 KZ     Kazakhst… Asia      Asia      Central … Sove…   2.73e6  1.73e7    71.6
##  7 UZ     Uzbekist… Asia      Asia      Central … Sove…   4.61e5  3.08e7    71.0
##  8 PG     Papua Ne… Oceania   Oceania   Melanesia Sove…   4.65e5  7.76e6    65.2
##  9 ID     Indonesia Asia      Asia      South-Ea… Sove…   1.82e6  2.55e8    68.9
## 10 AR     Argentina South Am… Americas  South Am… Sove…   2.78e6  4.30e7    76.3
## # … with 167 more rows, and 4 more variables: gdpPercap <dbl>,
## #   geom <MULTIPOLYGON [°]>, coffee_production_2016 <int>,
## #   coffee_production_2017 <int>

world_coffee2

## Simple feature collection with 45 features and 12 fields
## Geometry type: MULTIPOLYGON
## Dimension:     XY
## Bounding box:  xmin: -117.1278 ymin: -33.76838 xmax: 156.02 ymax: 35.49401
## Geodetic CRS:  WGS 84
## # A tibble: 45 x 13
##    iso_a2 name_long  continent region_un subregion type  area_km2    pop lifeExp
##    <chr>  <chr>      <chr>     <chr>     <chr>     <chr>    <dbl>  <dbl>   <dbl>
##  1 TZ     Tanzania   Africa    Africa    Eastern … Sove…  932746. 5.22e7    64.2
##  2 PG     Papua New… Oceania   Oceania   Melanesia Sove…  464520. 7.76e6    65.2
##  3 ID     Indonesia  Asia      Asia      South-Ea… Sove… 1819251. 2.55e8    68.9
##  4 KE     Kenya      Africa    Africa    Eastern … Sove…  590837. 4.60e7    66.2
##  5 DO     Dominican… North Am… Americas  Caribbean Sove…   48158. 1.04e7    73.5
##  6 TL     Timor-Les… Asia      Asia      South-Ea… Sove…   14715. 1.21e6    68.3
##  7 MX     Mexico     North Am… Americas  Central … Sove… 1969480. 1.24e8    76.8
##  8 BR     Brazil     South Am… Americas  South Am… Sove… 8508557. 2.04e8    75.0
##  9 BO     Bolivia    South Am… Americas  South Am… Sove… 1085270. 1.06e7    68.4
## 10 PE     Peru       South Am… Americas  South Am… Sove… 1309700. 3.10e7    74.5
## # … with 35 more rows, and 4 more variables: gdpPercap <dbl>,
## #   geom <MULTIPOLYGON [°]>, coffee_production_2016 <int>,
## #   coffee_production_2017 <int>
…
